[
{
    "model": "commcrawler.exludeddomains",
    "fields": {
        "domain": "hugedomains.com"
    }
},
{
    "model": "commcrawler.exludeddomains",
    "fields": {
        "domain": "pp.auto.ke.orange.fr"
    }
}
]
